<svg xmlns="http://www.w3.org/2000/svg" width="36" height="35" viewBox="0 0 36 35">
  <defs>
    <style>
      .cls-1 {
        fill: #1f3863;
        fill-rule: evenodd;
      }
    </style>
  </defs>
  <path id="backoffice.svg" class="cls-1" d="M1846.61,3288.51v-3.07c0-6.43-5.23-11.44-11.9-11.44s-11.9,5.01-11.9,11.44v3.07a6.75,6.75,0,0,0,.69,13.43h0.52a1.739,1.739,0,0,0,3.45-.28v-12.92a1.726,1.726,0,0,0-1.73-1.71,1.777,1.777,0,0,0-1.72,1.43h-0.06v-3.08c0-5.86,4.6-10.3,10.75-10.3s10.75,4.44,10.75,10.3v3.08h-0.05a1.747,1.747,0,0,0-1.73-1.43,1.718,1.718,0,0,0-1.72,1.71v12.92a1.718,1.718,0,0,0,1.72,1.71,1.8,1.8,0,0,0,1.73-1.43h0.05v0.74a3.326,3.326,0,0,1-3.5,3.47h-3.11a2.037,2.037,0,0,0-1.84-1.13h-2.82a1.99,1.99,0,1,0,0,3.98h2.82a2.026,2.026,0,0,0,2.01-1.71h2.94a4.47,4.47,0,0,0,4.65-4.61v-0.79a6.757,6.757,0,0,0,6.38-6.72A6.669,6.669,0,0,0,1846.61,3288.51Zm-28.46,6.72a5.436,5.436,0,0,1,5.29-5.58h0.52v11.16h-0.52A5.482,5.482,0,0,1,1818.15,3295.23Zm6.96-6.49a0.578,0.578,0,0,1,.58-0.57,0.621,0.621,0,0,1,.57.57v12.92a0.576,0.576,0,0,1-.57.57,0.623,0.623,0,0,1-.58-0.57v-12.92Zm11.96,19.12h-2.82a0.855,0.855,0,1,1,0-1.71h2.82a0.88,0.88,0,0,1,.86.86A0.839,0.839,0,0,1,1837.07,3307.86Zm7.24-6.2a0.569,0.569,0,0,1-.57.57,0.623,0.623,0,0,1-.58-0.57v-12.92a0.578,0.578,0,0,1,.58-0.57,0.613,0.613,0,0,1,.57.57v12.92Zm1.9-.85h-0.75v-11.22h0.75A5.61,5.61,0,1,1,1846.21,3300.81Z" transform="translate(-1817 -3274)"/>
</svg>
