<svg xmlns="http://www.w3.org/2000/svg" width="37" height="37" viewBox="0 0 37 37">
  <defs>
    <style>
      .cls-1 {
        fill: none;
        stroke: #1f3863;
        stroke-width: 1px;
        fill-rule: evenodd;
      }
    </style>
  </defs>
  <path id="finance.svg" class="cls-1" d="M1852.53,3386.27h1.1a0.365,0.365,0,1,1,0,.73h-35.26a0.377,0.377,0,0,1-.16-0.04c-0.01,0-.02,0-0.02-0.01-0.02-.01-0.02-0.02-0.04-0.03a0.121,0.121,0,0,1-.05-0.05,0.1,0.1,0,0,1-.04-0.05,0.435,0.435,0,0,1-.04-0.07c0-.02-0.01-0.05-0.01-0.07s-0.01-.03-0.01-0.05v-35.26a0.365,0.365,0,1,1,.73,0v33.84l0.26,1.06h32.81M1822,3369h7v17h-7v-17Zm10-6h7v23h-7v-23Zm10-8h7v32h-7v-32Z" transform="translate(-1817.5 -3350.5)"/>
</svg>
