<svg xmlns="http://www.w3.org/2000/svg" width="36" height="39" viewBox="0 0 36 39">
  <defs>
    <style>
      .cls-1 {
        fill: #1f3863;
        fill-rule: evenodd;
      }
    </style>
  </defs>
  <path id="govtandngo.svg" class="cls-1" d="M1243.84,3365.97h32.32a0.366,0.366,0,0,0,.35-0.25,0.357,0.357,0,0,0-.11-0.4l-16.17-13.26a0.362,0.362,0,0,0-.46,0l-16.17,13.26a0.357,0.357,0,0,0-.11.4A0.366,0.366,0,0,0,1243.84,3365.97Zm16.16-13.15,15.13,12.41h-30.26Zm17.63,34.5h-2.57v-1.11a0.361,0.361,0,0,0-.37-0.36h-29.38a0.361,0.361,0,0,0-.37.36v1.11h-2.57a0.363,0.363,0,0,0-.37.37v2.94a0.363,0.363,0,0,0,.37.37h35.26a0.363,0.363,0,0,0,.37-0.37v-2.94A0.363,0.363,0,0,0,1277.63,3387.32Zm-0.36,2.94h-34.54v-2.2h2.58a0.367,0.367,0,0,0,.36-0.37v-1.11h28.66v1.11a0.367,0.367,0,0,0,.36.37h2.58v2.2Zm-27.61-3.38h-3.97V3365.1h3.97v21.78Zm-3.23-.74h2.49v-20.3h-2.49v20.3Zm15.92,0.74h-4.91V3365.1h4.91v21.78Zm-4.18-.74h3.45v-20.3h-3.45v20.3Zm15.93,0.74h-3.97V3365.1h3.97v21.78Zm-3.24-.74h2.5v-20.3h-2.5v20.3Z" transform="translate(-1242 -3352)"/>
</svg>
