<svg xmlns="http://www.w3.org/2000/svg" width="36" height="32" viewBox="0 0 36 32">
  <defs>
    <style>
      .cls-1 {
        fill: #1f3863;
        fill-rule: evenodd;
      }
    </style>
  </defs>
  <path id="manufacturing.svg" class="cls-1" d="M1237,3635.22V3652h36v-32h-6.17l-1.32,13.22h-5.8v-4.83l-6.65,4.41v-4.41l-6.64,4.41v-4.41Zm13.37,15.89v-4.99h4.38v4.99h-4.38Zm-12.68-15.49,7.78-5.5v4.41l6.64-4.41v4.41l6.65-4.41v4.04h7.54l1.32-13.22h4.48v30.17h-16.4v-5.88h-6.22v5.88h-11.6Z" transform="translate(-1237 -3620)"/>
</svg>
