<svg xmlns="http://www.w3.org/2000/svg" width="44" height="42" viewBox="0 0 44 42">
  <defs>
    <style>
      .cls-1 {
        fill: #1f3863;
        fill-rule: evenodd;
      }
    </style>
  </defs>
  <path id="marketingsales.svg" class="cls-1" d="M1826.19,3550l-3.55-6.71-7.45-1.31,1.06-7.52-5.27-5.46,5.27-5.46-1.06-7.52,7.45-1.31,3.55-6.71,6.8,3.33,6.8-3.33,3.54,6.71,7.46,1.31-1.06,7.52,5.26,5.46-5.26,5.46,1.06,7.52-7.46,1.31-3.54,6.71-6.8-3.34Zm6.8-4.17,6.48,3.17,3.37-6.39,7.11-1.25-1.01-7.16,5.01-5.2-5.01-5.2,1.01-7.17-7.11-1.25-3.37-6.39-6.48,3.18-6.48-3.18-3.38,6.39-7.1,1.25,1.01,7.17-5.02,5.2,5.02,5.2-1.01,7.16,7.1,1.25,3.38,6.39Zm0.19-8.33v1.82h-0.74v-1.8a6.5,6.5,0,0,1-4.81-1.84l0.38-.58a6.053,6.053,0,0,0,4.43,1.8v-7.81l-0.9-.27c-2.07-.61-3.97-1.59-3.97-4.11,0-2.42,1.92-4.06,4.87-4.22v-1.81h0.74v1.79a6.14,6.14,0,0,1,4.6,1.91l-0.42.54a5.734,5.734,0,0,0-4.18-1.82v7.43l0.11,0.04c2.26,0.7,5.12,1.71,5.12,4.65C1838.41,3535.68,1836.31,3537.37,1833.18,3537.5Zm-0.74-9.2v-7.2c-2.48.16-4.09,1.55-4.09,3.54,0,2.18,1.74,2.97,3.64,3.53Zm5.16,4.98c0-2.11-1.83-3.14-4.42-3.95v7.54C1835.86,3536.72,1837.6,3535.33,1837.6,3533.28Z" transform="translate(-1811 -3508)"/>
</svg>
