<svg xmlns="http://www.w3.org/2000/svg" width="30" height="42" viewBox="0 0 30 42">
  <defs>
    <style>
      .cls-1 {
        fill: #1f3863;
        fill-rule: evenodd;
      }
    </style>
  </defs>
  <path id="r_d.svg" data-name="r&amp;d.svg" class="cls-1" d="M1838.53,3669a1.206,1.206,0,0,0-.88.35l-0.88.87-0.91-.87a1.173,1.173,0,0,0-1.55,0l-16.94,16.52a1.05,1.05,0,0,0,0,1.5l0.88,0.88-0.92.87a1.214,1.214,0,0,0,0,1.68l1.06,1.02a1.264,1.264,0,0,0,1.72,0l0.91-.88,0.88,0.84a1.111,1.111,0,0,0,1.55,0l12.16-11.79a15.426,15.426,0,0,1-3.55,25.79h-11.77a1.229,1.229,0,0,0-1.2,1.19v2.84a1.229,1.229,0,0,0,1.2,1.19h24.56a1.229,1.229,0,0,0,1.2-1.19v-2.84a1.229,1.229,0,0,0-1.2-1.19h-3.72a19.834,19.834,0,0,0-1.62-29.61l0.92-.87a1.062,1.062,0,0,0,0-1.51l-0.92-.87,0.92-.88a1.144,1.144,0,0,0,0-1.68l-1.06-1.01h0a1.076,1.076,0,0,0-.84-0.35h0Zm0,0.91a0.224,0.224,0,0,1,.17.07l1.06,1.05a0.2,0.2,0,0,1,0,.35l-0.92.91-1.4-1.4,0.91-.91a0.267,0.267,0,0,1,.18-0.07h0Zm-3.45.07a0.155,0.155,0,0,1,.11.03l4.57,4.45a0.172,0.172,0,0,1,0,.17l-16.98,16.52a0.2,0.2,0,0,1-.21,0l-4.53-4.44a0.131,0.131,0,0,1,0-.21l16.94-16.49a0.131,0.131,0,0,1,.1-0.03h0Zm3.76,6.86a18.94,18.94,0,0,1,.95,28.94h-5.83a16.35,16.35,0,0,0,2.32-26.46l2.56-2.48h0Zm-19.92,12.04,1.44,1.4-0.92.87a0.26,0.26,0,0,1-.38,0l-1.06-1.01a0.29,0.29,0,0,1,0-.39l0.92-.87h0Zm1.37,17.85h24.56a0.239,0.239,0,0,1,.25.24v2.84a0.239,0.239,0,0,1-.25.24h-24.56a0.239,0.239,0,0,1-.25-0.24v-2.84a0.239,0.239,0,0,1,.25-0.24h0Z" transform="translate(-1817 -3669)"/>
</svg>
