<svg xmlns="http://www.w3.org/2000/svg" width="51" height="35.91" viewBox="0 0 51 35.91">
  <defs>
    <style>
      .cls-1 {
        fill: #1f3863;
        fill-rule: evenodd;
      }
    </style>
  </defs>
  <path id="supply_chain.svg" data-name="supply chain.svg" class="cls-1" d="M1858.94,3849.59h0a1.2,1.2,0,0,0-.06-0.23h0a1.629,1.629,0,0,1-.11-0.17l-0.06-.06h-0.06l-10.8-6.23a0.534,0.534,0,0,0-.57,0l-2.66,1.59v-4.99a0.5,0.5,0,0,0-.28-0.45l-10.59-6.17a0.48,0.48,0,0,0-.56,0l-10.47,6.12h-0.06l-0.05.05-0.12.12h0a0.2,0.2,0,0,0-.05.16v5.22l-2.89-1.65a0.534,0.534,0,0,0-.57,0l-10.69,6.18h-0.06l-0.05.05a0.334,0.334,0,0,0-.12.17h0c0,0.06-.05.06-0.05,0.12v12.46a0.5,0.5,0,0,0,.28.45l10.69,6.23h0.12c0.05,0,.11.06,0.17,0.06a0.211,0.211,0,0,0,.17-0.06h0.11l10.7-6.4a0.563,0.563,0,0,0,.28-0.45v-4.76l2.66,1.53h0.11c0.06,0,.12.06,0.17,0.06h0a0.192,0.192,0,0,0,.17-0.06h0.11l2.66-1.53v4.98a0.463,0.463,0,0,0,.29.46l10.92,6.23h0.11c0.06,0,.12.05,0.17,0.05a0.226,0.226,0,0,0,.17-0.05h0.12l10.52-6.23a0.6,0.6,0,0,0,.28-0.46l-0.05-12.34h0Zm-11.38-5.55,9.74,5.55-9.45,5.43-9.85-5.49Zm-14.09-10.03,9.51,5.55-9.62,5.44-9.34-5.5Zm-14.2,10.03,9.56,5.49-9.56,5.55-9.62-5.55Zm-10.13,6.45,9.56,5.55v11.05l-9.56-5.55v-11.05Zm10.64,16.6v-11.05l9.56-5.55v10.82Zm10.69-17.56h0a1.7,1.7,0,0,0-.05-0.23h0c-0.06-.05-0.06-0.11-0.12-0.17l-0.05-.05h-0.06l-6.68-3.85v-4.76l9.34,5.49v10.99l-2.38-1.36v-6.06h0Zm3.51,7.42v-10.99l9.51-5.44v4.59l-6.91,3.97-0.05.05-0.06.06a0.277,0.277,0,0,0-.11.17h0v0.23h0v6.06Zm3.45-6.46,9.85,5.5v11.15l-9.85-5.6v-11.05Zm10.98,16.6v-11.1l9.39-5.44v10.93Zm-32.82-9.01a0.576,0.576,0,0,1-.45.29,0.508,0.508,0,0,1-.29-0.06l-2.49-1.42a0.544,0.544,0,0,1,.51-0.96l2.49,1.42A0.513,0.513,0,0,1,1815.59,3858.08Zm28.63,0.06a0.563,0.563,0,0,1-.45.28,0.557,0.557,0,0,1-.28-0.05l-2.49-1.42a0.585,0.585,0,0,1-.23-0.74,0.57,0.57,0,0,1,.74-0.22l2.49,1.41A0.472,0.472,0,0,1,1844.22,3858.14Z" transform="translate(-1808 -3832.78)"/>
</svg>
