<?xml version="1.0" encoding="utf-8"?>
<!-- Generator: Adobe Illustrator 19.0.0, SVG Export Plug-In . SVG Version: 6.00 Build 0)  -->
<svg version="1.1" xmlns="http://www.w3.org/2000/svg" width="43" height="29" xmlns:xlink="http://www.w3.org/1999/xlink" x="0px" y="0px"
	 viewBox="0 0 40 40" style="enable-background:new 0 0 40 40;" xml:space="preserve">
<style type="text/css">
	.st0{display:none;}
	.st1{display:inline;fill:#5D5E5E;}
	.st2{display:inline;}
	.st3{fill:#5D5E5E;}
	.st4{display:inline;fill:#203A66;}
	.st5{fill:#203963;}
</style>
<g id="Layer_1" class="st0">
</g>
<g id="Layer_2">
</g>
</svg>
